-------------------------------------------------------------------------------
Test set: com.sig.business.repository.DealerRepositoryTest
-------------------------------------------------------------------------------
Tests run: 1, Failures: 0, Errors: 0, Skipped: 0, Time elapsed: 0.23 s - in com.sig.business.repository.DealerRepositoryTest
