-------------------------------------------------------------------------------
Test set: com.sig.business.domaine.DealerEntityTest
-------------------------------------------------------------------------------
Tests run: 1, Failures: 0, Errors: 0, Skipped: 0, Time elapsed: 0.017 s - in com.sig.business.domaine.DealerEntityTest
