C:\Users\A626251\work\agency\test\tesagency360\src\main\java\com\sig\business\config\SwaggerConfiguration.java
C:\Users\A626251\work\agency\test\tesagency360\src\main\java\com\sig\business\service\utils\BusinessUtils.java
C:\Users\A626251\work\agency\test\tesagency360\src\main\java\com\sig\business\webRest\dto\ListingRechercheDto.java
C:\Users\A626251\work\agency\test\tesagency360\src\main\java\com\sig\business\webRest\exception\NotUpdateException.java
C:\Users\A626251\work\agency\test\tesagency360\src\main\java\com\sig\business\webRest\exception\NotCreateException.java
C:\Users\A626251\work\agency\test\tesagency360\src\main\java\com\sig\business\service\utils\Constante.java
C:\Users\A626251\work\agency\test\tesagency360\src\main\java\com\sig\business\webRest\dto\ListingCreatDto.java
C:\Users\A626251\work\agency\test\tesagency360\src\main\java\com\sig\business\webRest\Utils\HeaderUtil.java
C:\Users\A626251\work\agency\test\tesagency360\src\main\java\com\sig\business\domain\ListingEntity.java
C:\Users\A626251\work\agency\test\tesagency360\src\main\java\com\sig\business\webRest\exception\DealerNotFoundException.java
C:\Users\A626251\work\agency\test\tesagency360\src\main\java\com\sig\business\repository\ListingRepository.java
C:\Users\A626251\work\agency\test\tesagency360\src\main\java\com\sig\business\webRest\DealerResource.java
C:\Users\A626251\work\agency\test\tesagency360\src\main\java\com\sig\business\domain\DealerEntity.java
C:\Users\A626251\work\agency\test\tesagency360\src\main\java\com\sig\business\domain\Statut.java
C:\Users\A626251\work\agency\test\tesagency360\src\main\java\com\sig\business\webRest\dto\DealerCreatDto.java
C:\Users\A626251\work\agency\test\tesagency360\src\main\java\com\sig\business\service\mapper\ListingMapper.java
C:\Users\A626251\work\agency\test\tesagency360\src\main\java\com\sig\business\service\IDealerService.java
C:\Users\A626251\work\agency\test\tesagency360\src\main\java\com\sig\business\repository\DealerRepository.java
C:\Users\A626251\work\agency\test\tesagency360\src\main\java\com\sig\business\service\dto\ListingDto.java
C:\Users\A626251\work\agency\test\tesagency360\src\main\java\com\sig\business\ListingApplication.java
C:\Users\A626251\work\agency\test\tesagency360\src\main\java\com\sig\business\webRest\exception\NotFoundException.java
C:\Users\A626251\work\agency\test\tesagency360\src\main\java\com\sig\business\service\mapper\EntityMapper.java
C:\Users\A626251\work\agency\test\tesagency360\src\main\java\com\sig\business\service\Imp\DealerServiceImp.java
C:\Users\A626251\work\agency\test\tesagency360\src\main\java\com\sig\business\webRest\ListingResource.java
C:\Users\A626251\work\agency\test\tesagency360\src\main\java\com\sig\business\service\IListingService.java
C:\Users\A626251\work\agency\test\tesagency360\src\main\java\com\sig\business\service\Imp\ListingServiceImpl.java
C:\Users\A626251\work\agency\test\tesagency360\src\main\java\com\sig\business\service\mapper\DealerMapper.java
C:\Users\A626251\work\agency\test\tesagency360\src\main\java\com\sig\business\service\dto\DealerDto.java
